{
    "name": "Clockwork Bus",
    "author": "URV",
    "description": "The bus is nice.",
    "date": "2019-06-28",
    "revision": 3,
    "type": "vehicle/car",

    "engine_force": 17,
    "top_speed": 64.0,
    "steer_angle": 0.22,
    "steer_speed": 0.9,
    "brake_strength": 1.5,
    "jump_strength": 5.0,
    "drift_force": 20.0,

    "camera": {
        "anchor": [0, 0, 0.32]
    },

    "body": {
        "mesh": "/cars/winbus/body.prm",
        "textures": ["/cars/winbus/car.png"],
        "mass": 4.62,
        "gravity_scale": 1.6,
        "offset": [0.0, 0.0, 0.0],
        "collision_offset": [0.0, 0.0, 0.0],
        "rotation": [0.0, 0.0, 0.0],
        "scale": [1.0, 1.0, 1.0],
        "angular_damp_ground": 0.72,
        "angular_damp_air": 0.96
    },

    "wheels": [
        {
            "name": "wheelfl",
            "mesh": "/cars/winbus/wheelfl.prm",
            "textures": ["/cars/winbus/car.png"],
            "position": [0.16, 0.0, 0.286],
            "offset": [0.0, 0.0, 0.0],
            "scale": [1.0, 1.0, 1.0],
            "steer": true,
            "powered": true,
            "radius": 0.12,
            "skid_width": 0.05,
            "rest_length": 0.06,
            "grip": 1.5,
            "grip_drift": 1.5,
            "roll_influence": 0.075,
            
            "suspension_travel": 0.13,
            "suspension_stiffness": 140.47,
            "suspension_force": 2000.0,

            "damping_compression": 0.83,
            "damping_relaxation": 0.52
        },
        {
            "name": "wheelfr",
            "mesh": "/cars/winbus/wheelfr.prm",
            "textures": ["/cars/winbus/car.png"],
            "position": [-0.16, 0.0, 0.286],
            "offset": [0.0, 0.0, 0.0],
            "scale": [1.0, 1.0, 1.0],
            "steer": true,
            "powered": true,
            "radius": 0.12,
            "skid_width": 0.05,
            "rest_length": 0.06,
            "grip": 1.5,
            "grip_drift": 1.5,
            "roll_influence": 0.075,
            
            "suspension_travel": 0.13,
            "suspension_stiffness": 140.47,
            "suspension_force": 2000.0,

            "damping_compression": 0.83,
            "damping_relaxation": 0.52
        },
        {
            "name": "wheelbl",
            "mesh": "/cars/winbus/wheelbl.prm",
            "textures": ["/cars/winbus/car.png"],
            "position": [0.16, 0.0, -0.256],
            "offset": [0.0, 0.0, 0.0],
            "scale": [1.0, 1.0, 1.0],
            "steer": false,
            "powered": true,
            "radius": 0.12,
            "skid_width": 0.05,
            "rest_length": 0.06,
            "grip": 1.5,
            "grip_drift": 1.5,
            "roll_influence": 0.075,
            
            "suspension_travel": 0.13,
            "suspension_stiffness": 140.47,
            "suspension_force": 2000.0,

            "damping_compression": 0.83,
            "damping_relaxation": 0.52
        },
        {
            "name": "wheelbr",
            "mesh": "/cars/winbus/wheelbr.prm",
            "textures": ["/cars/winbus/car.png"],
            "position": [-0.16, 0.0, -0.256],
            "offset": [0.0, 0.0, 0.0],
            "scale": [1.0, 1.0, 1.0],
            "steer": false,
            "powered": true,
            "radius": 0.12,
            "skid_width": 0.05,
            "rest_length": 0.06,
            "grip": 1.5,
            "grip_drift": 1.5,
            "roll_influence": 0.075,
            
            "suspension_travel": 0.13,
            "suspension_stiffness": 140.47,
            "suspension_force": 2000.0,

            "damping_compression": 0.83,
            "damping_relaxation": 0.52
        }
    ],
    "objects": [
        {
            "name": "key",
            "mesh": "/cars/winbus/key.prm",
            "textures": ["/cars/winbus/car.png"],
            "position": [0.0, -0.05, -0.036],
            "scale": [1.0, 1.0, 1.0],
            "actions": ["rotate"],
            "action_axis": {
                "rotate": [0.0, 1.0, 0.0]
            }
        }
    ]
}