{
    "name": "Gator",
    "author": "Team17",
    "description": "",
    "date": "2019-08-15",
    "revision": 1,
    "type": "vehicle/car",

    "engine_force": 22,
    "top_speed": 103.0,
    "steer_angle": 0.5,
    "steer_speed": 2.6,
    "brake_strength": 4.4,
    "jump_strength": 6.7,
    "drift_force": 133.0,

    "camera": {
        "anchor": [0, 0, 0.32]
    },

    "body": {
        "mesh": "/cars/gator/body.prm",
        "collision": "/cars/gator/collision.prm",
        "textures": ["/cars/gator/gator.png"],
        "mass": 8.0,
        "gravity_scale": 2.0,
        "offset": [0.0, 0.0, 0.0],
        "collision_offset": [0.0, 0.05, 0.0],
        "rotation": [0.0, 0.0, 0.0],
        "scale": [1.0, 1.0, 1.0],
        "angular_damp_ground": 0.62,
        "angular_damp_air": 0.87,
        "friction": 0.3
    },

    "wheels": [
        {
            "name": "wheelfl",
            "mesh": "/cars/gator/wheelfl.prm",
            "textures": ["/cars/gator/gator.png"],
            "position": [0.22, 0.03, 0.3],
            "offset": [0.0, 0.0, 0.0],
            "scale": [1.0, 1.0, 1.0],
            "steer": true,
            "powered": false,
            "radius": 0.17,
            "skid_width": 0.05,
            "rest_length": 0.05,
            "grip": 1.6,
            "grip_drift": 1.4,
            "roll_influence": 0.05,
            
            "suspension_travel": 0.2,
            "suspension_stiffness": 90.0,
            "suspension_force": 2050.0,

            "damping_compression": 1.8,
            "damping_relaxation": 2.0,
        },
        {
            "name": "wheelfr",
            "mesh": "/cars/gator/wheelfr.prm",
            "textures": ["/cars/gator/gator.png"],
            "position": [-0.22, 0.03, 0.3],
            "offset": [0.0, 0.0, 0.0],
            "scale": [1.0, 1.0, 1.0],
            "steer": true,
            "powered": false,
            "radius": 0.17,
            "skid_width": 0.05,
            "rest_length": 0.05,
            "grip": 1.6,
            "grip_drift": 1.4,
            "roll_influence": 0.05,
            
            "suspension_travel": 0.2,
            "suspension_stiffness": 90.0,
            "suspension_force": 2050.0,

            "damping_compression": 1.8,
            "damping_relaxation": 2.0
        },
        {
            "name": "wheelbl",
            "mesh": "/cars/gator/wheelbl.prm",
            "textures": ["/cars/gator/gator.png"],
            "position": [0.24, 0.03, -0.28],
            "offset": [0.0, 0.0, 0.0],
            "scale": [1.0, 1.0, 1.0],
            "steer": false,
            "powered": true,
            "radius": 0.16,
            "skid_width": 0.06,
            "rest_length": 0.05,
            "grip": 1.8,
            "grip_drift": 1.45,
            "roll_influence": 0.09,
            
            "suspension_travel": 0.2,
            "suspension_stiffness": 120.0,
            "suspension_force": 2050.0,

            "damping_compression": 1.8,
            "damping_relaxation": 2.0
        },
        {
            "name": "wheelbr",
            "mesh": "/cars/gator/wheelbr.prm",
            "textures": ["/cars/gator/gator.png"],
            "position": [-0.24, 0.03, -0.28],
            "offset": [0.0, 0.0, 0.0],
            "scale": [1.0, 1.0, 1.0],
            "steer": false,
            "powered": true,
            "radius": 0.16,
            "skid_width": 0.06,
            "rest_length": 0.05,
            "grip": 1.8,
            "grip_drift": 1.45,
            "roll_influence": 0.09,
            
            "suspension_travel": 0.2,
            "suspension_stiffness": 120.0,
            "suspension_force": 2050.0,

            "damping_compression": 1.8,
            "damping_relaxation": 2.0
        }
    ],
    "springs": [
        {
            "name": "springfl",
            "mesh": "/cars/gator/spring.prm",
            "textures": ["/cars/gator/gator.png"],
            "origin": [0.1, 0.12, 0.28],
            "target_wheel": 0,
            "target_offset": [0.01, -0.02, 0],
            "length": 4.6
        },
        {
            "name": "springfl",
            "mesh": "/cars/gator/spring.prm",
            "textures": ["/cars/gator/gator.png"],
            "origin": [-0.1, 0.12, 0.28],
            "target_wheel": 1,
            "target_offset": [-0.01, -0.02, 0],
            "length": 4.6
        },
        {
            "name": "springfl",
            "mesh": "/cars/gator/spring.prm",
            "textures": ["/cars/gator/gator.png"],
            "origin": [0.11, 0.12, -0.28],
            "target_wheel": 2,
            "target_offset": [0.02, -0.02, 0],
            "length": 4.0
        },
        {
            "name": "springfl",
            "mesh": "/cars/gator/spring.prm",
            "textures": ["/cars/gator/gator.png"],
            "origin": [-0.11, 0.12, -0.28],
            "target_wheel": 3,
            "target_offset": [-0.02, -0.02, 0],
            "length": 4.0
        }
    ],
    "axles": [
        {
            "name": "axlefl",
            "mesh": "/cars/gator/axle.prm",
            "textures": ["/cars/gator/gator.png"],
            "origin_wheel": 0,
            "target": [0.1, 0.04, 0.28]
        },
        {
            "name": "axlefr",
            "mesh": "/cars/gator/axle.prm",
            "textures": ["/cars/gator/gator.png"],
            "origin_wheel": 1,
            "target": [-0.1, 0.04, 0.28]
        },
        {
            "name": "axlebl",
            "mesh": "/cars/gator/axleb.prm",
            "textures": ["/cars/gator/gator.png"],
            "origin_wheel": 2,
            "target": [0.1, 0.04, -0.28]
        },
        {
            "name": "axlebr",
            "mesh": "/cars/gator/axleb.prm",
            "textures": ["/cars/gator/gator.png"],
            "origin_wheel": 3,
            "target": [-0.1, 0.04, -0.28]
        }
    ]
}